{
  "variants": {
    "level=0": {
      "model": "monsterous:block/cauldron"
    },
    "level=1": {
      "model": "monsterous:block/cauldron_0"
    },
    "level=2": {
      "model": "monsterous:block/cauldron_1"
    },
    "level=3": {
      "model": "monsterous:block/cauldron_2"
    }
  }
}